"foobar5.test","ns1.dns.test","ns2.dns.test","ns3.dns.test","ns4.dns.test","2018-05-30 12:30:45","foo-123","foo-123","foo-123","foo-123","foo-123","foo-123","foo-123","foo-123"
"foobar6.test","ns1.dns.test","ns2.dns.test","ns3.dns.test","ns4.dns.test","2018-08-30T12:30:45Z","foo-123","foo-123","foo-123","foo-123","foo-123","foo-1235","foo-123","foo-123"
"foobar7.test","ns1.dns.test","ns2.dns.test","ns3.dns.test","ns4.dns.test","2018-05-30T12:30:45Z","foo-123","foo-123","foo-123","foo-123 foo-1234","foo-123","foo-1235","foo-123","foo-123"
"foobar8.test","ns1.dns.test","ns2.dns.test","ns3.dns.test","ns4.dns.test","2018-05-30 12:30:45","foo-123","foo-1234","foo-123","foo-123 foo-1235",,,,
"foobar9.test","ns1.dns.test","ns2.dns.test","ns3.dns.test","ns4.dns.test","2018-05-30 12:30:45","foo-123","foo-1234","foo-123","foo-123",,,,
