"handle","name","address","state","zip","city","country","email","phone","fax"
"foo-123","Foo Bar","At Home 123","Foostate",12345,"Foocity","Fooland","foo@bar.test","+555.123-345-123",0
"foo-1234","Alice Bob","742 Evergreen Terrace","Foostate","12345","Foocity","Fooland","alice@bar.test","+555.123-345-678","0"
"foo-1235","Bob Alice","Escaped ""Quote"" Street 42","Barstate","54321","Barcity","Barland","bob@bar.test","+555.123-345-345","0"
